{
  "type": "service_account",
  "project_id": "sprint-3-48247",
  "private_key_id": "9d38584ab0abc13693ba842cac67ea17a9498f80",
  "private_key": "-----BEGIN PRIVATE KEY-----\nMIIEvgIBADANBgkqhkiG9w0BAQEFAASCBKgwggSkAgEAAoIBAQC2/yITJDmQv/FB\neA1+zFn4U/yRqFbej2Tm76gCdzdPKup/eKNoQkcG/yfVD7Gfd6zAs/xmvnK3H9Tw\nBVfw8mVBFyB2ChcVzI2OYNJyFibpDrAGy1KKEdgfPX6gzlAwtfpfxQOF/iVP9v5n\n7r3sHBZXqw/wLa83/MX5mahRZZ3d41OeICjd3zCDeGpRub0KX5tN2iRtHIHUUrFz\nc+Pje1hw6W3qGKELnUnRLIM+gGWIf2ifbN78vvJQ+3dxMuGHk/hOqIZOVz1FJUSe\n7jiNsQyFK3jQ3MI/zzEOkf4TAoEeJzQnTS+jmglsGwby8ZFxi5fTdXKxXfuIONEt\nTyfW6Kc9AgMBAAECggEAC9DCWvkKTHnQMnl1aZv5LSsDEkaLwVgB3FVaBDq9U/vB\n41QfPOKWonGEGWInhlPcUB7u65VdY8yG266EpJaKCh9bpbN2FR69fxVqURp0DbU4\nkV+8ZxTK3w2B6REZJWQCk/9tAFBOCXE5sO09zwprOOLfJxNUDmngQIL21raYcFSa\nlp/+Ur/PGdbi5r79mytxoc+DfOWUx+NNpU7qhNsuivuQesZSuPY28BaLmsL0HXhw\n8ZC2OZAByV+aGuWd1t20VxbM0v99onYh2yL7lRU4BmzbC3hEYJ46PT67ppgNt5Px\nTKsE+nTJSqHpxLW+8WObeFc3ao1wCpvcSf3QNglMEwKBgQDydXJZRq+7VAyky4pF\nXAaQ5Kl8VEuvDIQz2vKge7ruKIAyKrailLsA50okPsPQMQ14jZWzH9zT3rK+LjwJ\npgICZ37mvZqKfZPU7ORorEjJ6V10wbZv6TT0dOq7uu/nAe1WpPc1fu5wakWkg+kx\n5QVL9qDyh+mQjOGfEHqWD4CUmwKBgQDBN4bDHPhaQR4bZNtxnxlguiDg8Noo3zbo\nwycZvElMqKhtL0l2Q8QxXH/9F/Z871qPbDdQ/g2Bbe9Wlp7Vbpb/7ZEkSAdn+dOK\nyFeCYLVb8uZWj0RWlIQ5TgBhRPFW0+ul37n49wnPMEi7LYMGZWEB5/sVThh0S7gP\nbPRhJam1BwKBgFoCtALktRSsbU04qwp40Y809J7NhJNl6CaAIBboGEuWCZGWPds5\nr/rz4ph2HKfLrh6VIYAwUgDt6hmkfHFwicputbPfq+HCIQGpOFqLqzIaSrGvwJTn\nVNt0FDjBe5KdKolCEOxxRP/C1DvxJL97MG41Dyc6wcECLDirG3deJfQFAoGBAKY2\nFvaXYEl7xON54pCedZ1Q4GHAr1sDkd+vqV4pK8EHQUQTrpVO/GIeGXfmekLFQFkq\nlXdV5NZXdNE+5snhxYHJotbcI4rdTY4Qg78DZGAB1wXVXstAHXKSWB9UyGuSCB/8\nEqZKFSUnexmRsCn7YfTa05JjSQQZ8u9KIfvEA3ZXAoGBAMLImmIGb0PttsYYDctY\n4EVpvaw0aP6zN0bRFP3s17+DvneOqUpYU86ybj4yeDvP2trNjh/IC1qRUXEkdTDz\nG0wZSqteG3C7SLH7q3VKnr2CISD4geKy5n0s6J7+2GgVLiCfORkm6TI0V52ixq/y\neEKTC5KMhsKuhTpyfnuhoa58\n-----END PRIVATE KEY-----\n",
  "client_email": "firebase-adminsdk-y04qb@sprint-3-48247.iam.gserviceaccount.com",
  "client_id": "115474690176116961495",
  "auth_uri": "https://accounts.google.com/o/oauth2/auth",
  "token_uri": "https://oauth2.googleapis.com/token",
  "auth_provider_x509_cert_url": "https://www.googleapis.com/oauth2/v1/certs",
  "client_x509_cert_url": "https://www.googleapis.com/robot/v1/metadata/x509/firebase-adminsdk-y04qb%40sprint-3-48247.iam.gserviceaccount.com"
}
